-------------------------------------------------------------------------------
Test set: com.example.actuatordemo.ActuatorDemoApplicationTests
-------------------------------------------------------------------------------
Tests run: 1, Failures: 0, Errors: 0, Skipped: 0, Time elapsed: 8.467 s - in com.example.actuatordemo.ActuatorDemoApplicationTests
